%YAML 1.1
%TAG !u! tag:unity3d.com,2011:
--- !u!114 &11400000
MonoBehaviour:
  m_ObjectHideFlags: 0
  m_CorrespondingSourceObject: {fileID: 0}
  m_PrefabInstance: {fileID: 0}
  m_PrefabAsset: {fileID: 0}
  m_GameObject: {fileID: 0}
  m_Enabled: 1
  m_EditorHideFlags: 0
  m_Script: {fileID: 11500000, guid: 7e625fd57e0f1ca4290e41a27ea98e3c, type: 3}
  m_Name: AdsConfig
  m_EditorClassIdentifier: 
  AdsErrorRetryInterval: 3
  AdsDownloadTimeout: 90
  Android:
    LoadMultipleAds: 1
    AppId: 
    BannerlId: 5c1c6f3fbfb11e2c
    InterstitialId: 2b4b950593f12903
    RewardedVideoId: 581dfb127abc760a
    InterstitialRewardedId: 
    OfferWallId: 
    AppOpenId: 8d8bb6b17e5bb5d0
    placementConfig:
    - 
    - 
    - 
    - 
    - 
    - 
    IronsourceId: 
    ApplovingSDKKey: 18JPIOIVCD3QRVmyX9WGceTUNOWThQ8BufrBeg1pw0v84SJKfHvUVklmf0t0dRkTmKDZyaKVqpAW4JMaJvHCLM
    TopOnAppId: 
    TopOnAppKey: 
  iOS:
    LoadMultipleAds: 1
    AppId: 
    BannerlId: 383359c5987fc610
    InterstitialId: 7013dc3db1292f4b
    RewardedVideoId: efe36371062b65c1
    InterstitialRewardedId: 
    OfferWallId: 
    AppOpenId: 5bb1d42b4205c4ec
    placementConfig:
    - 
    - 
    - 
    - 
    - 
    - 
    IronsourceId: 
    ApplovingSDKKey: 18JPIOIVCD3QRVmyX9WGceTUNOWThQ8BufrBeg1pw0v84SJKfHvUVklmf0t0dRkTmKDZyaKVqpAW4JMaJvHCLM
    TopOnAppId: 
    TopOnAppKey: 
  instanceGame:
    LoadMultipleAds: 1
    AppId: 
    BannerlId: 
    InterstitialId: 
    RewardedVideoId: 
    InterstitialRewardedId: 
    OfferWallId: 
    AppOpenId: 
    placementConfig:
    - 
    - 
    - 
    - 
    - 
    - 
    IronsourceId: 
    ApplovingSDKKey: 
    TopOnAppId: 
    TopOnAppKey: 
