%YAML 1.1
%TAG !u! tag:unity3d.com,2011:
--- !u!114 &11400000
MonoBehaviour:
  m_ObjectHideFlags: 0
  m_CorrespondingSourceObject: {fileID: 0}
  m_PrefabInstance: {fileID: 0}
  m_PrefabAsset: {fileID: 0}
  m_GameObject: {fileID: 0}
  m_Enabled: 1
  m_EditorHideFlags: 0
  m_Script: {fileID: 11500000, guid: a0d554a8ab86c304fba40f9cd0382005, type: 3}
  m_Name: ConfigItem
  m_EditorClassIdentifier: 
  sheetId: 1BrUpiQdlWGa9NM9Gt-wjrXFJq2h0kt2Z1Cpx61Ar4ek
  gridId: 1518094287
  records:
  - name: Key room
    linkPrefab: key
    id: 0
    itemType: 0
    canDrag: 0
  - name: A cup of coffee
    linkPrefab: coffee
    id: 1
    itemType: 1
    canDrag: 0
  primaryKeyName: 
